module gitlab.com/book_market/order_service

go 1.19

require (
	github.com/golang/protobuf v1.5.2
	github.com/jmoiron/sqlx v1.3.5
	github.com/joho/godotenv v1.5.1
	github.com/lib/pq v1.10.7
	github.com/redis/go-redis/v9 v9.0.2
	github.com/sirupsen/logrus v1.9.0
	github.com/spf13/viper v1.15.0
	github.com/stretchr/testify v1.8.1
	gitlab.com/book_market/book_service v0.0.0-20230207051857-a640652eb24b
	google.golang.org/grpc v1.53.0
	google.golang.org/protobuf v1.28.1
)

require (
	github.com/cespare/xxhash/v2 v2.2.0 // indirect
	github.com/davecgh/go-spew v1.1.1 // indirect
	github.com/dgryski/go-rendezvous v0.0.0-20200823014737-9f7001d12a5f // indirect
	github.com/fsnotify/fsnotify v1.6.0 // indirect
	github.com/hashicorp/hcl v1.0.0 // indirect
	github.com/magiconair/properties v1.8.7 // indirect
	github.com/mitchellh/mapstructure v1.5.0 // indirect
	github.com/pelletier/go-toml/v2 v2.0.6 // indirect
	github.com/pmezard/go-difflib v1.0.0 // indirect
	github.com/spf13/afero v1.9.3 // indirect
	github.com/spf13/cast v1.5.0 // indirect
	github.com/spf13/jwalterweatherman v1.1.0 // indirect
	github.com/spf13/pflag v1.0.5 // indirect
	github.com/subosito/gotenv v1.4.2 // indirect
	golang.org/x/net v0.5.0 // indirect
	golang.org/x/sys v0.4.0 // indirect
	golang.org/x/text v0.6.0 // indirect
	google.golang.org/genproto v0.0.0-20230110181048-76db0878b65f // indirect
	gopkg.in/ini.v1 v1.67.0 // indirect
	gopkg.in/yaml.v3 v3.0.1 // indirect
)
